3 Analyse – Essai de statistiques pour EuroDreams
…
}

Pour les écarts, c’est « presque » pareil. Tous les écarts sont à \(0\) au départ4.

4 L’écart d’un numéro est toujours l’écart par rapport au tirage précédent lors duquel ce numéro est sorti et il n’y avait pas de tirage avant le premier.

On commence par augmenter tous les écarts de \(1\), puis on met à \(0\) les écarts des numéros du tirage examiné.

nums

# A tibble: 40 × 7
      nu    so  so_L  so_J    ec  ec_L  ec_J
   <int> <dbl> <dbl> <dbl> <dbl> <dbl> <dbl>
 1     1    10     5     5     3     2     1
 2     2    16     9     7     1    11     0
 3     3    18    10     8     2     1     2
 4     4     8     3     5    11     6     5
 5     5    10     4     6     4     2     4
 6     6     9     6     3     3    16     1
 7     7    10     5     5    15     9     7
 8     8    15     5    10     1     6     0
 9     9    10     4     6     1     2     0
10    10    12     6     6     0     0    10
# ℹ 30 more rows
…
3.4.1 Compter les boules

nums

# A tibble: 40 × 7
      nu    so  so_L  so_J    ec  ec_L  ec_J
   <int> <dbl> <dbl> <dbl> <dbl> <dbl> <dbl>
 1     1    10     5     5     3     2     1
 2     2    16     9     7     1    11     0
 3     3    18    10     8     2     1     2
 4     4     8     3     5    11     6     5
 5     5    10     4     6     4     2     4
 6     6     9     6     3     3    16     1
 7     7    10     5     5    15     9     7
 8     8    15     5    10     1     6     0
 9     9    10     4     6     1     2     0
10    10    12     6     6     0     0    10
# ℹ 30 more rows
…
# A tibble: 5 × 7
     nu    so  so_L  so_J    ec  ec_L  ec_J
  <int> <dbl> <dbl> <dbl> <dbl> <dbl> <dbl>
1     1    22     8    14     7    13     3
2     2    12     5     7     0     0     0
3     3    15    11     4     4     2     5
4     4    16    10     6     5     3     2
5     5    16     7     9     2     1     1

3.5 Catégoriser

nums

# A tibble: 40 × 7
      nu    so  so_L  so_J    ec  ec_L  ec_J
   <int> <dbl> <dbl> <dbl> <dbl> <dbl> <dbl>
 1     1    10     5     5     3     2     1
 2     2    16     9     7     1    11     0
 3     3    18    10     8     2     1     2
 4     4     8     3     5    11     6     5
 5     5    10     4     6     4     2     4
 6     6     9     6     3     3    16     1
 7     7    10     5     5    15     9     7
 8     8    15     5    10     1     6     0
 9     9    10     4     6     1     2     0
10    10    12     6     6     0     0    10
# ℹ 30 more rows
…
a b c 
2 0 3 

table(quant.cut(nums$so,
                nbclass = 20,
                labels = FALSE))

 1  2  3  4  5  6  8  9 10 11 12 13 14 
 2  1  2  2  8  3  5  5  1  4  2  3  2 

nums

# A tibble: 40 × 7
      nu    so  so_L  so_J    ec  ec_L  ec_J
   <int> <dbl> <dbl> <dbl> <dbl> <dbl> <dbl>
 1     1    10     5     5     3     2     1
 2     2    16     9     7     1    11     0
 3     3    18    10     8     2     1     2
 4     4     8     3     5    11     6     5
 5     5    10     4     6     4     2     4
 6     6     9     6     3     3    16     1
 7     7    10     5     5    15     9     7
 8     8    15     5    10     1     6     0
 9     9    10     4     6     1     2     0
10    10    12     6     6     0     0    10
# ℹ 30 more rows

donnees <- donnees |> mutate(n1 = b2[,1], .after = bg) |> mutate(n2 = b2[,2], .after = n1) |>

nums <- nums |> 
  mutate(soQ = quant.cut(nums$so,
                nbclass = 15,
                labels = FALSE),
         .after = so)
nums

# A tibble: 40 × 8
      nu    so   soQ  so_L  so_J    ec  ec_L  ec_J
   <int> <dbl> <int> <dbl> <dbl> <dbl> <dbl> <dbl>
 1     1    10     4     5     5     3     2     1
 2     2    16    10     9     7     1    11     0
 3     3    18    11    10     8     2     1     2
 4     4     8     2     3     5    11     6     5
 5     5    10     4     4     6     4     2     4
 6     6     9     3     6     3     3    16     1
 7     7    10     4     5     5    15     9     7
 8     8    15     9     5    10     1     6     0
 9     9    10     4     4     6     1     2     0
10    10    12     6     6     6     0     0    10
# ℹ 30 more rows

nums <- nums |> 
  mutate(soQ = cut(nums$so,
                breaks = 5,
                labels = FALSE),
         .after = so)
nums

# A tibble: 40 × 8
      nu    so   soQ  so_L  so_J    ec  ec_L  ec_J
   <int> <dbl> <int> <dbl> <dbl> <dbl> <dbl> <dbl>
 1     1    10     2     5     5     3     2     1
 2     2    16     4     9     7     1    11     0
 3     3    18     4    10     8     2     1     2
 4     4     8     2     3     5    11     6     5
 5     5    10     2     4     6     4     2     4
 6     6     9     2     6     3     3    16     1
 7     7    10     2     5     5    15     9     7
 8     8    15     4     5    10     1     6     0
 9     9    10     2     4     6     1     2     0
10    10    12     3     6     6     0     0    10
# ℹ 30 more rows
…
nums$soQ <- LETTERS[nums$soQ]
nums$soQ <- paste0(nums$soQ, ":ST")
nums

# A tibble: 40 × 8
      nu    so soQ    so_L  so_J    ec  ec_L  ec_J
   <int> <dbl> <chr> <dbl> <dbl> <dbl> <dbl> <dbl>
 1     1    10 B:ST      5     5     3     2     1
 2     2    16 D:ST      9     7     1    11     0
 3     3    18 D:ST     10     8     2     1     2
 4     4     8 B:ST      3     5    11     6     5
 5     5    10 B:ST      4     6     4     2     4
 6     6     9 B:ST      6     3     3    16     1
 7     7    10 B:ST      5     5    15     9     7
 8     8    15 D:ST      5    10     1     6     0
 9     9    10 B:ST      4     6     1     2     0
10    10    12 C:ST      6     6     0     0    10
# ℹ 30 more rows
…
